char_traits.h:314:7:static std::size_t std::char_traits<char>::length(const char_type*)	16	static
gthr-default.h:229:1:int __gthread_key_delete(__gthread_key_t)	16	static
format.h:1047:17:unsigned int fmt::internal::count_digits(uint32_t)	24	static
format.cc:138:9:int fmt::{anonymous}::safe_strerror(int, char*&, std::size_t)::StrError::handle(int)	16	static
format.cc:181:5:fmt::{anonymous}::safe_strerror(int, char*&, std::size_t)::StrError::StrError(int, char*&, std::size_t)	24	static
format.cc:184:9:int fmt::{anonymous}::safe_strerror(int, char*&, std::size_t)::StrError::run()	16	static
format.cc:124:5:int fmt::{anonymous}::safe_strerror(int, char*&, std::size_t)	40	static
format.cc:191:6:void fmt::{anonymous}::format_error_code(fmt::Writer&, int, fmt::StringRef)	56	static
format.cc:214:6:void fmt::{anonymous}::report_error(fmt::{anonymous}::FormatFunc, int, fmt::StringRef)	560	static
main.cpp:67:5:int main()	120	static
main.cpp:112:6:void SystemClock_Config()	120	static
main.cpp:159:13:void MX_GPIO_Init()	32	static
main.cpp:186:6:void Error_Handler()	4	static
format.h:711:41:typename fmt::internal::MakeUnsigned<T>::Type fmt::internal::to_unsigned(Int) [with Int = int]	16	static
format.h:552:3:fmt::BasicStringRef<Char>::BasicStringRef(const Char*) [with Char = char]	16	static
format.h:3292:12:fmt::BasicMemoryWriter<Char, Allocator>::BasicMemoryWriter(const Allocator&) [with Char = char; Allocator = std::allocator<char>]	16	static
format.h:2875:8:void fmt::BasicWriter<Char>::clear() [with Char = char]	16	static
format.h:982:13:bool fmt::internal::is_negative(T) [with T = int]	16	static
format.h:598:15:std::size_t fmt::BasicStringRef<Char>::size() const [with Char = char]	16	static
format.h:2848:16:fmt::BasicWriter<Char>& fmt::BasicWriter<Char>::operator<<(fmt::BasicStringRef<Char>) [with Char = char]	40	static
format.h:2785:16:fmt::BasicWriter<Char>& fmt::BasicWriter<Char>::operator<<(int) [with Char = char]	16	static
format.h:2727:15:std::size_t fmt::BasicWriter<Char>::size() const [with Char = char]	16	static
format.h:2733:15:const Char* fmt::BasicWriter<Char>::data() const [with Char = char]	16	static
format.h:832:12:fmt::internal::MemoryBuffer<T, SIZE, Allocator>::MemoryBuffer(const Allocator&) [with T = char; unsigned int SIZE = 500; Allocator = std::allocator<char>]	16	static
format.h:834:3:fmt::internal::MemoryBuffer<T, SIZE, Allocator>::~MemoryBuffer() [with T = char; unsigned int SIZE = 500; Allocator = std::allocator<char>]	16	static
format.h:834:3:fmt::internal::MemoryBuffer<T, SIZE, Allocator>::~MemoryBuffer() [with T = char; unsigned int SIZE = 500; Allocator = std::allocator<char>]	16	static
format.h:770:8:void fmt::Buffer<T>::resize(std::size_t) [with T = char]	16	static
format.h:798:6:T& fmt::Buffer<T>::operator[](std::size_t) [with T = char]	16	static
format.h:762:15:std::size_t fmt::Buffer<T>::size() const [with T = char]	16	static
format.h:2714:12:fmt::BasicWriter<Char>::BasicWriter(fmt::Buffer<T>&) [with Char = char]	16	static
format.h:2722:11:fmt::BasicWriter<Char>::~BasicWriter() [with Char = char]	16	static
format.h:2722:11:fmt::BasicWriter<Char>::~BasicWriter() [with Char = char]	16	static
format.h:786:8:void fmt::Buffer<T>::clear() [with T = char]	16	static
format.h:970:15:static bool fmt::internal::SignChecker<IsSigned>::is_negative(T) [with T = int; bool IsSigned = true]	16	static
format.h:595:15:const Char* fmt::BasicStringRef<Char>::data() const [with Char = char]	16	static
format.h:804:6:void fmt::Buffer<T>::append(const U*, const U*) [with U = char; T = char]	32	static
format.h:2647:8:void fmt::BasicWriter<Char>::write_decimal(Int) [with Int = int; Char = char]	24	static
format.h:747:3:fmt::Buffer<T>::Buffer(T*, std::size_t) [with T = char]	24	static
format.h:759:11:fmt::Buffer<T>::~Buffer() [with T = char]	16	static
format.h:759:11:fmt::Buffer<T>::~Buffer() [with T = char]	16	static
format.h:824:8:void fmt::internal::MemoryBuffer<T, SIZE, Allocator>::deallocate() [with T = char; unsigned int SIZE = 500; Allocator = std::allocator<char>]	16	static
format.h:728:11:T* fmt::internal::make_ptr(T*, std::size_t) [with T = char]	16	static
stl_uninitialized.h:115:5:_ForwardIterator std::uninitialized_copy(_InputIterator, _InputIterator, _ForwardIterator) [with _InputIterator = const char*; _ForwardIterator = char*]	32	static
format.h:2638:9:Char* fmt::BasicWriter<Char>::write_unsigned_decimal(UInt, unsigned int) [with UInt = long unsigned int; Char = char]	32	static
new_allocator.h:116:7:void __gnu_cxx::new_allocator<_Tp>::deallocate(__gnu_cxx::new_allocator<_Tp>::pointer, __gnu_cxx::new_allocator<_Tp>::size_type) [with _Tp = char]	24	static
stl_uninitialized.h:99:9:static _ForwardIterator std::__uninitialized_copy<true>::__uninit_copy(_InputIterator, _InputIterator, _ForwardIterator) [with _InputIterator = const char*; _ForwardIterator = char*]	24	static
format.h:2620:16:static Char* fmt::BasicWriter<Char>::get(Char*) [with Char = char]	16	static
format.h:2630:11:fmt::BasicWriter<Char>::CharPtr fmt::BasicWriter<Char>::grow_buffer(std::size_t) [with Char = char]	24	static
format.h:1109:13:void fmt::internal::format_decimal(Char*, UInt, unsigned int) [with UInt = long unsigned int; Char = char]	32	static
stl_algobase.h:446:5:_OI std::copy(_II, _II, _OI) [with _II = const char*; _OI = char*]	32	static
format.h:1084:13:void fmt::internal::format_decimal(Char*, UInt, unsigned int, ThousandsSep) [with UInt = long unsigned int; Char = char; ThousandsSep = fmt::internal::NoThousandsSep]	32	static
stl_algobase.h:277:5:_Iterator std::__niter_base(_Iterator) [with _Iterator = char*]	16	static
new_allocator.h:129:7:__gnu_cxx::new_allocator<_Tp>::size_type __gnu_cxx::new_allocator<_Tp>::max_size() const [with _Tp = char]	16	static
cpp_type_traits.h:408:5:_Iterator std::__miter_base(_Iterator) [with _Iterator = const char*]	16	static
stl_algobase.h:420:5:_OI std::__copy_move_a2(_II, _II, _OI) [with bool _IsMove = false; _II = const char*; _OI = char*]	32	static
format.h:1056:8:void fmt::internal::NoThousandsSep::operator()(Char*) [with Char = char]	16	static
stl_algobase.h:277:5:_Iterator std::__niter_base(_Iterator) [with _Iterator = const char*]	16	static
stl_algobase.h:375:5:_OI std::__copy_move_a(_II, _II, _OI) [with bool _IsMove = false; _II = const char*; _OI = char*]	32	static
stl_algobase.h:357:9:static _Tp* std::__copy_move<_IsMove, true, std::random_access_iterator_tag>::__copy_m(const _Tp*, const _Tp*, _Tp*) [with _Tp = char; bool _IsMove = false]	32	static
format.h:3287:7:fmt::BasicMemoryWriter<char>::~BasicMemoryWriter()	16	static
format.h:3287:7:virtual fmt::BasicMemoryWriter<char>::~BasicMemoryWriter()	16	static
main.cpp:192:1:void __static_initialization_and_destruction_0(int, int)	16	static
format.h:874:6:void fmt::internal::MemoryBuffer<T, SIZE, Allocator>::grow(std::size_t) [with T = char; unsigned int SIZE = 500; Allocator = std::allocator<char>]	40	static
alloc_traits.h:449:7:static _Tp* std::allocator_traits<std::allocator<_CharT> >::allocate(std::allocator_traits<std::allocator<_CharT> >::allocator_type&, std::allocator_traits<std::allocator<_CharT> >::size_type, std::allocator_traits<std::allocator<_CharT> >::const_void_pointer) [with _Tp = char]	24	static
stl_uninitialized.h:115:5:_ForwardIterator std::uninitialized_copy(_InputIterator, _InputIterator, _ForwardIterator) [with _InputIterator = char*; _ForwardIterator = char*]	32	static
new_allocator.h:99:7:_Tp* __gnu_cxx::new_allocator<_Tp>::allocate(__gnu_cxx::new_allocator<_Tp>::size_type, const void*) [with _Tp = char]	24	static
stl_uninitialized.h:99:9:static _ForwardIterator std::__uninitialized_copy<true>::__uninit_copy(_InputIterator, _InputIterator, _ForwardIterator) [with _InputIterator = char*; _ForwardIterator = char*]	24	static
stl_algobase.h:446:5:_OI std::copy(_II, _II, _OI) [with _II = char*; _OI = char*]	32	static
cpp_type_traits.h:408:5:_Iterator std::__miter_base(_Iterator) [with _Iterator = char*]	16	static
stl_algobase.h:420:5:_OI std::__copy_move_a2(_II, _II, _OI) [with bool _IsMove = false; _II = char*; _OI = char*]	32	static
stl_algobase.h:375:5:_OI std::__copy_move_a(_II, _II, _OI) [with bool _IsMove = false; _II = char*; _OI = char*]	32	static
main.cpp:192:1:cpp)	8	static
main.cpp:192:1:cpp)	8	static
